Lewis Carroll and Alice’s Adventure
…
Lewis Carroll and Alice’s Adventure

Leanne Fortney

April 11, 2017

## # A tibble: 72,922 × 4
##    gutenberg_id                               text
##           <int>                              <chr>
## 1            11   ALICE'S ADVENTURES IN WONDERLAND
## 2            11                                   
## 3            11                      Lewis Carroll
## 4            11                                   
## 5            11 THE MILLENNIUM FULCRUM EDITION 3.0
## 6            11                                   
## 7            11                                   
## 8            11                                   
## 9            11                                   
## 10           11    CHAPTER I. Down the Rabbit-Hole
## # ... with 72,912 more rows, and 2 more variables: title <chr>,
## #   words <int>
…
## # A tibble: 3,339 × 4
##    gutenberg_id                               text
##           <int>                              <chr>
## 1            11   ALICE'S ADVENTURES IN WONDERLAND
## 2            11                                   
## 3            11                      Lewis Carroll
## 4            11                                   
## 5            11 THE MILLENNIUM FULCRUM EDITION 3.0
## 6            11                                   
## 7            11                                   
## 8            11                                   
## 9            11                                   
## 10           11    CHAPTER I. Down the Rabbit-Hole
## # ... with 3,329 more rows, and 2 more variables: title <chr>, words <int>
…
